﻿<?xml version="1.0" encoding="UTF-8"?>
<methodResponse>
    <params>
        <param>
            <value>
                <array>
                    <data>
                        <value>
                            <struct>
                                <member>
                                    <name>date_created_gmt</name>
                                    <value>
                                        <dateTime.iso8601>20140105T06:30:12</dateTime.iso8601>
                                    </value>
                                </member>
                                <member>
                                    <name>user_id</name>
                                    <value>
                                        <string>0</string>
                                    </value>
                                </member>
                                <member>
                                    <name>comment_id</name>
                                    <value>
                                        <string>100</string>
                                    </value>
                                </member>
                                <member>
                                    <name>parent</name>
                                    <value>
                                        <string>0</string>
                                    </value>
                                </member>
                                <member>
                                    <name>status</name>
                                    <value>
                                        <string>hold</string>
                                    </value>
                                </member>
                                <member>
                                    <name>content</name>
                                    <value>
                                        <string>This is a sample comment.</string>
                                    </value>
                                </member>
                                <member>
                                    <name>link</name>
                                    <value>
                                        <string>http://www.example.com/2014/01/05/test/#comment-100</string>
                                    </value>
                                </member>
                                <member>
                                    <name>post_id</name>
                                    <value>
                                        <string>5</string>
                                    </value>
                                </member>
                                <member>
                                    <name>post_title</name>
                                    <value>
                                        <string>Test</string>
                                    </value>
                                </member>
                                <member>
                                    <name>author</name>
                                    <value>
                                        <string>John Doe</string>
                                    </value>
                                </member>
                                <member>
                                    <name>author_url</name>
                                    <value>
                                        <string>http://example.net/</string>
                                    </value>
                                </member>
                                <member>
                                    <name>author_email</name>
                                    <value>
                                        <string>john@example.net</string>
                                    </value>
                                </member>
                                <member>
                                    <name>author_ip</name>
                                    <value>
                                        <string>123.456.789.012</string>
                                    </value>
                                </member>
                                <member>
                                    <name>type</name>
                                    <value>
                                        <string/>
                                    </value>
                                </member>
                            </struct>
                        </value>
                        <value>
                            <struct>
                                <member>
                                    <name>date_created_gmt</name>
                                    <value>
                                        <dateTime.iso8601>20140105T07:15:05</dateTime.iso8601>
                                    </value>
                                </member>
                                <member>
                                    <name>user_id</name>
                                    <value>
                                        <string>1</string>
                                    </value>
                                </member>
                                <member>
                                    <name>comment_id</name>
                                    <value>
                                        <string>101</string>
                                    </value>
                                </member>
                                <member>
                                    <name>parent</name>
                                    <value>
                                        <string>0</string>
                                    </value>
                                </member>
                                <member>
                                    <name>status</name>
                                    <value>
                                        <string>approve</string>
                                    </value>
                                </member>
                                <member>
                                    <name>content</name>
                                    <value>
                                        <string>This is another comment.</string>
                                    </value>
                                </member>
                                <member>
                                    <name>link</name>
                                    <value>
                                        <string>http://www.example.com/2014/01/05/test/#comment-101</string>
                                    </value>
                                </member>
                                <member>
                                    <name>post_id</name>
                                    <value>
                                        <string>5</string>
                                    </value>
                                </member>
                                <member>
                                    <name>post_title</name>
                                    <value>
                                        <string>Test</string>
                                    </value>
                                </member>
                                <member>
                                    <name>author</name>
                                    <value>
                                        <string>Jane Smith</string>
                                    </value>
                                </member>
                                <member>
                                    <name>author_url</name>
                                    <value>
                                        <string>http://example.org/</string>
                                    </value>
                                </member>
                                <member>
                                    <name>author_email</name>
                                    <value>
                                        <string>jane.smith@example.org</string>
                                    </value>
                                </member>
                                <member>
                                    <name>author_ip</name>
                                    <value>
                                        <string>234.567.890.123</string>
                                    </value>
                                </member>
                                <member>
                                    <name>type</name>
                                    <value>
                                        <string/>
                                    </value>
                                </member>
                            </struct>
                        </value>
                    </data>
                </array>
            </value>
        </param>
    </params>
</methodResponse>