﻿<?xml version="1.0" encoding="UTF-8"?>
<methodResponse>
    <params>
        <param>
            <value>
                <struct>
                    <member>
                        <name>approved</name>
                        <value>
                            <string>12</string>
                        </value>
                    </member>
                    <member>
                        <name>awaiting_moderation</name>
                        <value>
                            <string>1</string>
                        </value>
                    </member>
                    <member>
                        <name>spam</name>
                        <value>
                            <int>4</int>
                        </value>
                    </member>
                    <member>
                        <name>total_comments</name>
                        <value>
                            <int>17</int>
                        </value>
                    </member>
                </struct>
            </value>
        </param>
    </params>
</methodResponse>
